# station-quality-scoring

```
> scores_export
# A tibble: 124 × 15
   station_id gauge_name                        institution gauge_lat gauge_lon gauge_alt total_days_calendar total_days_valid    TC    MC    SD    SS    TD  STRS reliability
   <chr>      <chr>                             <chr>           <dbl>     <dbl>     <int>               <dbl>            <int> <dbl> <dbl> <dbl> <dbl> <dbl> <dbl> <ord>      
 1 X00000010  Remehue                           INIA            -40.5     -73.1        74               26298             4053 0.154 0.154     0 0.994 0     0.184 Very Low   
 2 X10360002  Adolfo Matthei                    DGA             -40.6     -73.1        56               26298            13822 0.526 0.526     0 0.991 1     0.588 Moderate   
 3 X00400009  Canal Bajo Osorno Ad.             DMC             -40.6     -73.1        59               26298            25617 0.974 0.974     1 0.987 1     0.984 Very Good  
 4 X10356001  Rio Negro En Chahuilco            DGA             -40.7     -73.2        40               26298             6203 0.236 0.236     0 0.992 0     0.229 Low        
 5 X00000012  Desague_Rupanco                   INIA            -40.8     -72.7       259               26298             2774 0.105 0.105     0 0.993 0     0.157 Very Low   
 6 X10340001  Rio Rahue En Desague Lago Rupanco DGA             -40.8     -72.7       123               26298             4020 0.153 0.153     0 0.989 1.000 0.383 Low        
 7 X00000013  La_Pampa                          INIA            -40.9     -73.2        95               26298             3984 0.151 0.152     0 0.998 1     0.383 Low        
 8 X00000014  Octay                             INIA            -41.0     -72.9       174               26298             3546 0.135 0.135     0 0.994 1.000 0.374 Low        
 9 X00000015  Quilanto                          INIA            -41.0     -73.0       161               26298             3430 0.130 0.130     0 0.993 1     0.371 Low        
10 X00000016  Polizones                         INIA            -41.1     -73.4       182               26298             3546 0.135 0.135     0 0.994 1     0.374 Low        
# ℹ 114 more rows 
```
